{
  "data": [
    { "id": 5432, "date": "2026-04-15", "check_in": "2026-04-15T07:55:12Z", "check_out": "2026-04-15T17:05:00Z", "hours_worked": 8.16, "overtime_hours": 0.16, "status": "ontime", "method": "mobile", "is_manual_edit": false },
    { "id": 5431, "date": "2026-04-14", "check_in": "2026-04-14T08:12:00Z", "check_out": "2026-04-14T17:00:00Z", "hours_worked": 7.8, "overtime_hours": 0.0, "status": "late", "method": "mobile", "is_manual_edit": false },
    { "id": 5430, "date": "2026-04-13", "check_in": null, "check_out": null, "hours_worked": null, "overtime_hours": null, "status": "absent", "method": null, "is_manual_edit": false },
    { "id": 5429, "date": "2026-04-12", "check_in": null, "check_out": null, "hours_worked": null, "overtime_hours": null, "status": "leave", "method": null, "is_manual_edit": false },
    { "id": 5428, "date": "2026-04-11", "check_in": "2026-04-11T07:58:00Z", "check_out": "2026-04-11T17:02:00Z", "hours_worked": 8.07, "overtime_hours": 0.07, "status": "ontime", "method": "mobile", "is_manual_edit": false },
    { "id": 5427, "date": "2026-04-10", "check_in": "2026-04-10T07:50:00Z", "check_out": "2026-04-10T18:30:00Z", "hours_worked": 9.67, "overtime_hours": 1.67, "status": "ontime", "method": "biometric", "is_manual_edit": false },
    { "id": 5426, "date": "2026-04-09", "check_in": "2026-04-09T08:05:00Z", "check_out": "2026-04-09T17:00:00Z", "hours_worked": 7.92, "overtime_hours": 0.0, "status": "ontime", "method": "mobile", "is_manual_edit": false },
    { "id": 5425, "date": "2026-04-08", "check_in": "2026-04-08T08:22:00Z", "check_out": "2026-04-08T17:15:00Z", "hours_worked": 7.88, "overtime_hours": 0.0, "status": "late", "method": "mobile", "is_manual_edit": false },
    { "id": 5424, "date": "2026-04-07", "check_in": "2026-04-07T07:59:00Z", "check_out": "2026-04-07T17:00:00Z", "hours_worked": 8.02, "overtime_hours": 0.02, "status": "ontime", "method": "qr", "is_manual_edit": false },
    { "id": 5423, "date": "2026-04-06", "check_in": null, "check_out": null, "hours_worked": null, "overtime_hours": null, "status": "holiday", "method": null, "is_manual_edit": false },
    { "id": 5422, "date": "2026-04-05", "check_in": null, "check_out": null, "hours_worked": null, "overtime_hours": null, "status": "holiday", "method": null, "is_manual_edit": false },
    { "id": 5421, "date": "2026-04-04", "check_in": "2026-04-04T07:55:00Z", "check_out": "2026-04-04T17:05:00Z", "hours_worked": 8.17, "overtime_hours": 0.17, "status": "ontime", "method": "mobile", "is_manual_edit": false },
    { "id": 5420, "date": "2026-04-03", "check_in": "2026-04-03T08:00:00Z", "check_out": "2026-04-03T17:00:00Z", "hours_worked": 8.0, "overtime_hours": 0.0, "status": "ontime", "method": "mobile", "is_manual_edit": false },
    { "id": 5419, "date": "2026-04-02", "check_in": "2026-04-02T08:31:00Z", "check_out": "2026-04-02T17:30:00Z", "hours_worked": 7.98, "overtime_hours": 0.0, "status": "late", "method": "mobile", "is_manual_edit": true },
    { "id": 5418, "date": "2026-04-01", "check_in": "2026-04-01T07:48:00Z", "check_out": "2026-04-01T17:00:00Z", "hours_worked": 8.2, "overtime_hours": 0.2, "status": "ontime", "method": "mobile", "is_manual_edit": false },
    { "id": 5417, "date": "2026-03-31", "check_in": "2026-03-31T07:58:00Z", "check_out": "2026-03-31T17:02:00Z", "hours_worked": 8.07, "overtime_hours": 0.07, "status": "ontime", "method": "mobile", "is_manual_edit": false },
    { "id": 5416, "date": "2026-03-30", "check_in": "2026-03-30T08:45:00Z", "check_out": "2026-03-30T17:00:00Z", "hours_worked": 7.25, "overtime_hours": 0.0, "status": "late", "method": "mobile", "is_manual_edit": false },
    { "id": 5415, "date": "2026-03-29", "check_in": null, "check_out": null, "hours_worked": null, "overtime_hours": null, "status": "holiday", "method": null, "is_manual_edit": false },
    { "id": 5414, "date": "2026-03-28", "check_in": null, "check_out": null, "hours_worked": null, "overtime_hours": null, "status": "holiday", "method": null, "is_manual_edit": false },
    { "id": 5413, "date": "2026-03-27", "check_in": "2026-03-27T07:59:00Z", "check_out": "2026-03-27T17:00:00Z", "hours_worked": 8.02, "overtime_hours": 0.02, "status": "ontime", "method": "biometric", "is_manual_edit": false }
  ],
  "meta": {
    "current_page": 1,
    "last_page": 2,
    "per_page": 20,
    "total": 30
  }
}
