{
  "_comment": "Historique pointages — format sessions[] avec session_number pour split-shift",
  "data": [
    {
      "date": "2026-04-15",
      "sessions": [
        { "id": 5432, "session_number": 1, "check_in": "2026-04-15T07:55:12Z", "check_out": "2026-04-15T17:05:00Z", "hours_worked": 8.16, "overtime_hours": 0.16, "status": "ontime", "method": "mobile", "is_manual_edit": false }
      ],
      "daily_summary": { "total_hours_worked": 8.16, "total_overtime_hours": 0.16, "status": "ontime" }
    },
    {
      "date": "2026-04-14",
      "sessions": [
        { "id": 5431, "session_number": 1, "check_in": "2026-04-14T08:12:00Z", "check_out": "2026-04-14T17:00:00Z", "hours_worked": 7.8, "overtime_hours": 0.0, "status": "late", "method": "mobile", "is_manual_edit": false }
      ],
      "daily_summary": { "total_hours_worked": 7.8, "total_overtime_hours": 0.0, "status": "late" }
    },
    {
      "date": "2026-04-13",
      "sessions": [],
      "daily_summary": { "total_hours_worked": null, "total_overtime_hours": null, "status": "absent" }
    },
    {
      "date": "2026-04-12",
      "sessions": [],
      "daily_summary": { "total_hours_worked": null, "total_overtime_hours": null, "status": "leave" }
    },
    {
      "date": "2026-04-11",
      "sessions": [
        { "id": 5428, "session_number": 1, "check_in": "2026-04-11T07:58:00Z", "check_out": "2026-04-11T17:02:00Z", "hours_worked": 8.07, "overtime_hours": 0.07, "status": "ontime", "method": "mobile", "is_manual_edit": false }
      ],
      "daily_summary": { "total_hours_worked": 8.07, "total_overtime_hours": 0.07, "status": "ontime" }
    },
    {
      "date": "2026-04-10",
      "sessions": [
        { "id": 5427, "session_number": 1, "check_in": "2026-04-10T07:50:00Z", "check_out": "2026-04-10T18:30:00Z", "hours_worked": 9.67, "overtime_hours": 1.67, "status": "ontime", "method": "biometric", "is_manual_edit": false }
      ],
      "daily_summary": { "total_hours_worked": 9.67, "total_overtime_hours": 1.67, "status": "ontime" }
    },
    {
      "date": "2026-04-09",
      "sessions": [
        { "id": 5426, "session_number": 1, "check_in": "2026-04-09T06:00:00Z", "check_out": "2026-04-09T12:00:00Z", "hours_worked": 6.0, "overtime_hours": 0.0, "status": "ontime", "method": "mobile", "is_manual_edit": false },
        { "id": 5426, "session_number": 2, "check_in": "2026-04-09T14:00:00Z", "check_out": "2026-04-09T18:00:00Z", "hours_worked": 4.0, "overtime_hours": 2.0, "status": "ontime", "method": "mobile", "is_manual_edit": false }
      ],
      "daily_summary": { "total_hours_worked": 10.0, "total_overtime_hours": 2.0, "status": "ontime" }
    },
    {
      "date": "2026-04-08",
      "sessions": [
        { "id": 5425, "session_number": 1, "check_in": "2026-04-08T08:22:00Z", "check_out": "2026-04-08T17:15:00Z", "hours_worked": 7.88, "overtime_hours": 0.0, "status": "late", "method": "mobile", "is_manual_edit": false }
      ],
      "daily_summary": { "total_hours_worked": 7.88, "total_overtime_hours": 0.0, "status": "late" }
    },
    {
      "date": "2026-04-07",
      "sessions": [
        { "id": 5424, "session_number": 1, "check_in": "2026-04-07T07:59:00Z", "check_out": "2026-04-07T17:00:00Z", "hours_worked": 8.02, "overtime_hours": 0.02, "status": "ontime", "method": "qrcode", "is_manual_edit": false }
      ],
      "daily_summary": { "total_hours_worked": 8.02, "total_overtime_hours": 0.02, "status": "ontime" }
    },
    {
      "date": "2026-04-06",
      "sessions": [],
      "daily_summary": { "total_hours_worked": null, "total_overtime_hours": null, "status": "holiday" }
    },
    {
      "date": "2026-04-05",
      "sessions": [],
      "daily_summary": { "total_hours_worked": null, "total_overtime_hours": null, "status": "holiday" }
    },
    {
      "date": "2026-04-04",
      "sessions": [
        { "id": 5421, "session_number": 1, "check_in": "2026-04-04T07:55:00Z", "check_out": "2026-04-04T17:05:00Z", "hours_worked": 8.17, "overtime_hours": 0.17, "status": "ontime", "method": "mobile", "is_manual_edit": false }
      ],
      "daily_summary": { "total_hours_worked": 8.17, "total_overtime_hours": 0.17, "status": "ontime" }
    },
    {
      "date": "2026-04-03",
      "sessions": [
        { "id": 5420, "session_number": 1, "check_in": "2026-04-03T08:00:00Z", "check_out": "2026-04-03T17:00:00Z", "hours_worked": 8.0, "overtime_hours": 0.0, "status": "ontime", "method": "mobile", "is_manual_edit": false }
      ],
      "daily_summary": { "total_hours_worked": 8.0, "total_overtime_hours": 0.0, "status": "ontime" }
    },
    {
      "date": "2026-04-02",
      "sessions": [
        { "id": 5419, "session_number": 1, "check_in": "2026-04-02T08:31:00Z", "check_out": "2026-04-02T17:30:00Z", "hours_worked": 7.98, "overtime_hours": 0.0, "status": "late", "method": "mobile", "is_manual_edit": true }
      ],
      "daily_summary": { "total_hours_worked": 7.98, "total_overtime_hours": 0.0, "status": "late" }
    },
    {
      "date": "2026-04-01",
      "sessions": [
        { "id": 5418, "session_number": 1, "check_in": "2026-04-01T07:48:00Z", "check_out": "2026-04-01T17:00:00Z", "hours_worked": 8.2, "overtime_hours": 0.2, "status": "ontime", "method": "mobile", "is_manual_edit": false }
      ],
      "daily_summary": { "total_hours_worked": 8.2, "total_overtime_hours": 0.2, "status": "ontime" }
    },
    {
      "date": "2026-03-31",
      "sessions": [
        { "id": 5417, "session_number": 1, "check_in": "2026-03-31T07:58:00Z", "check_out": "2026-03-31T17:02:00Z", "hours_worked": 8.07, "overtime_hours": 0.07, "status": "ontime", "method": "mobile", "is_manual_edit": false }
      ],
      "daily_summary": { "total_hours_worked": 8.07, "total_overtime_hours": 0.07, "status": "ontime" }
    },
    {
      "date": "2026-03-30",
      "sessions": [
        { "id": 5416, "session_number": 1, "check_in": "2026-03-30T08:45:00Z", "check_out": "2026-03-30T17:00:00Z", "hours_worked": 7.25, "overtime_hours": 0.0, "status": "late", "method": "mobile", "is_manual_edit": false }
      ],
      "daily_summary": { "total_hours_worked": 7.25, "total_overtime_hours": 0.0, "status": "late" }
    },
    {
      "date": "2026-03-29",
      "sessions": [],
      "daily_summary": { "total_hours_worked": null, "total_overtime_hours": null, "status": "holiday" }
    },
    {
      "date": "2026-03-28",
      "sessions": [],
      "daily_summary": { "total_hours_worked": null, "total_overtime_hours": null, "status": "holiday" }
    },
    {
      "date": "2026-03-27",
      "sessions": [
        { "id": 5413, "session_number": 1, "check_in": "2026-03-27T07:59:00Z", "check_out": "2026-03-27T17:00:00Z", "hours_worked": 8.02, "overtime_hours": 0.02, "status": "ontime", "method": "biometric", "is_manual_edit": false }
      ],
      "daily_summary": { "total_hours_worked": 8.02, "total_overtime_hours": 0.02, "status": "ontime" }
    }
  ],
  "meta": {
    "current_page": 1,
    "last_page": 2,
    "per_page": 20,
    "total": 30
  }
}
